R Workshop - Part 1
…
ℹ Use `spec()` to retrieve the full column specification for this data.
ℹ Specify the column types or set `show_col_types = FALSE` to quiet this message.

readr::read_csv is a function for—your guessed it—loading “.csv” files (csv: comma separated value).1  This line can be read from left to right as: “create an object called ccm_raw, assign (<-) to it the result of the function call read_csv()”. The result of read_csv is whatever that function does to its input. The input in this case is a file path in string form: “data/ccm-raw-2023-08-08-csv.zip”. Good function names tell you what the function does. In this case, it is pretty expressive: the function reads in a csv file. (Here, it actually reads in a zip file that contains a .csv file.) So what is the content of ccm_raw now? If you type the object name into the console and hit execute, you see that ccm_raw is a tibble, a type of data table.
When we first introduce a function, we will use a package::function notation (e.g., readr::read_csv) to point to the package the function is included in. So that you know what packages need to be loaded before you can run the code

ccm_raw

# A tibble: 271,143 × 29
   GVKEY  LINKPRIM LIID  LINKTYPE LPERMNO datadate   fyear indfmt consol popsrc
   <chr>  <chr>    <chr> <chr>      <dbl> <date>     <dbl> <chr>  <chr>  <chr> 
 1 001001 P        01    LU         10015 1983-12-31  1983 INDL   C      D     
 2 001001 P        01    LU         10015 1984-12-31  1984 INDL   C      D     
 3 001001 P        01    LU         10015 1985-12-31  1985 INDL   C      D     
 4 001003 C        01    LU         10031 1983-12-31  1983 INDL   C      D     
 5 001003 C        01    LU         10031 1984-12-31  1984 INDL   C      D     
 6 001003 C        01    LU         10031 1986-01-31  1985 INDL   C      D     
 7 001003 C        01    LU         10031 1987-01-31  1986 INDL   C      D     
 8 001003 C        01    LU         10031 1988-01-31  1987 INDL   C      D     
 9 001003 C        01    LU         10031 1989-01-31  1988 INDL   C      D     
10 001004 P        01    LU         54594 1981-05-31  1980 INDL   C      D     
# ℹ 271,133 more rows
# ℹ 19 more variables: datafmt <chr>, tic <chr>, cusip <chr>, conm <chr>,
#   curcd <chr>, fyr <dbl>, at <dbl>, ceq <dbl>, che <dbl>, dlc <dbl>,
#   dltt <dbl>, ib <dbl>, oiadp <dbl>, sale <dbl>, exchg <dbl>, costat <chr>,
#   fic <chr>, priusa <chr>, sic <chr>
…
